{
  "type": "object",
  "title": "configuration",
  "required": [
    "until_date",
    "orchestration_id",
    "use_events_api"
  ],
  "properties": {
    "until_date": {
      "type": "string",
      "title": "Remove data before [excluding]",
      "description": "Date in YYYY-MM-DD format or dateparser string i.e. 5 days ago, 1 month ago, yesterday, etc. If left empty, all found files are deleted.",
      "default": "24 hours ago",
      "propertyOrder": 300
    },
    "orchestration_id": {
      "type": "string",
      "title": "[Optional] Orchestration config ID",
      "description": "Config ID of orchestration. If left empty, the parent orchestration is used.",
      "propertyOrder": 450
    },
    "use_events_api": {
      "type": "boolean",
      "title": "Use events to get RunID files",
      "default": true,
      "propertyOrder": 550
    }
  }
}
